<?xml version="1.0" standalone="no"?>
<!DOCTYPE svg PUBLIC "-//W3C//DTD SVG 20010904//EN"
 "http://www.w3.org/TR/2001/REC-SVG-20010904/DTD/svg10.dtd">
<svg version="1.0" xmlns="http://www.w3.org/2000/svg"
 width="1119.000000pt" height="544.000000pt" viewBox="0 0 1119.000000 544.000000"
 preserveAspectRatio="xMidYMid meet">

<g transform="translate(0.000000,544.000000) scale(0.100000,-0.100000)"
fill="#000000" stroke="none">
<path d="M11185 2720 c0 -1499 1 -2112 2 -1362 2 749 2 1975 0 2725 -1 749 -2
136 -2 -1363z"/>
<path d="M928 4833 c23 -2 59 -2 80 0 20 2 1 4 -43 4 -44 0 -61 -2 -37 -4z"/>
<path d="M3768 4833 c23 -2 59 -2 80 0 20 2 1 4 -43 4 -44 0 -61 -2 -37 -4z"/>
<path d="M5538 4833 c23 -2 59 -2 80 0 20 2 1 4 -43 4 -44 0 -61 -2 -37 -4z"/>
<path d="M7308 4833 c23 -2 59 -2 80 0 20 2 1 4 -43 4 -44 0 -61 -2 -37 -4z"/>
<path d="M10148 4833 c23 -2 59 -2 80 0 20 2 1 4 -43 4 -44 0 -61 -2 -37 -4z"/>
<path d="M785 4815 c-52 -17 -35 -17 40 0 37 8 49 13 30 13 -16 0 -48 -5 -70
-13z"/>
<path d="M1051 4826 c2 -2 27 -6 54 -9 34 -4 42 -3 25 3 -25 8 -87 13 -79 6z"/>
<path d="M3673 4823 c9 -2 25 -2 35 0 9 3 1 5 -18 5 -19 0 -27 -2 -17 -5z"/>
<path d="M3903 4823 c9 -2 23 -2 30 0 6 3 -1 5 -18 5 -16 0 -22 -2 -12 -5z"/>
<path d="M5410 4820 c-17 -6 -9 -7 25 -3 28 3 52 7 54 9 8 7 -54 2 -79 -6z"/>
<path d="M5661 4826 c2 -2 27 -6 54 -9 34 -4 42 -3 25 3 -25 8 -87 13 -79 6z"/>
<path d="M7223 4823 c9 -2 23 -2 30 0 6 3 -1 5 -18 5 -16 0 -22 -2 -12 -5z"/>
<path d="M7443 4823 c9 -2 25 -2 35 0 9 3 1 5 -18 5 -19 0 -27 -2 -17 -5z"/>
<path d="M10020 4820 c-17 -6 -9 -7 25 -3 28 3 52 7 54 9 8 7 -54 2 -79 -6z"/>
<path d="M10325 4815 c75 -17 92 -17 40 0 -22 8 -53 13 -70 13 -19 0 -7 -5 30
-13z"/>
<path d="M3628 4813 c7 -3 16 -2 19 1 4 3 -2 6 -13 5 -11 0 -14 -3 -6 -6z"/>
<path d="M3970 4810 c34 -11 60 -11 35 0 -11 5 -29 8 -40 8 -16 0 -15 -2 5 -8z"/>
<path d="M7145 4810 c-25 -11 1 -11 35 0 20 6 21 8 5 8 -11 0 -29 -3 -40 -8z"/>
<path d="M7508 4813 c7 -3 16 -2 19 1 4 3 -2 6 -13 5 -11 0 -14 -3 -6 -6z"/>
<path d="M1175 4800 c27 -12 43 -12 25 0 -8 5 -22 9 -30 9 -10 0 -8 -3 5 -9z"/>
<path d="M3555 4795 c-39 -17 -21 -18 25 0 19 7 28 14 20 14 -8 0 -28 -6 -45
-14z"/>
<path d="M7570 4795 c46 -18 64 -17 25 0 -16 8 -37 14 -45 14 -8 0 1 -7 20
-14z"/>
<path d="M9950 4800 c-18 -12 -2 -12 25 0 13 6 15 9 5 9 -8 0 -22 -4 -30 -9z"/>
<path d="M617 4750 c-26 -16 -47 -32 -47 -36 0 -4 6 -2 13 4 6 6 32 22 57 36
25 14 40 26 34 26 -5 0 -31 -13 -57 -30z"/>
<path d="M1302 4748 c52 -28 133 -103 166 -153 7 -11 6 -7 -2 10 -19 40 -112
127 -164 154 -64 33 -64 24 0 -11z"/>
<path d="M4130 4754 c25 -14 51 -30 57 -36 7 -6 13 -8 13 -4 0 9 -91 66 -104
66 -6 0 9 -12 34 -26z"/>
<path d="M5224 4749 c-59 -37 -130 -104 -150 -141 -24 -46 -16 -44 15 3 37 57
72 89 145 133 33 20 55 36 50 36 -6 0 -32 -14 -60 -31z"/>
<path d="M5916 4744 c73 -44 108 -76 145 -133 31 -47 39 -49 15 -3 -27 52
-174 172 -210 172 -5 0 17 -16 50 -36z"/>
<path d="M6997 4750 c-26 -16 -47 -32 -47 -36 0 -4 6 -2 13 4 6 6 32 22 57 36
25 14 40 26 34 26 -5 0 -31 -13 -57 -30z"/>
<path d="M9840 4754 c-56 -31 -137 -109 -156 -149 -8 -16 -9 -21 -2 -10 33 50
114 125 166 153 31 17 53 32 47 32 -5 0 -30 -12 -55 -26z"/>
<path d="M10510 4754 c25 -14 51 -30 57 -36 7 -6 13 -8 13 -4 0 9 -91 66 -104
66 -6 0 9 -12 34 -26z"/>
<path d="M3422 4730 c-33 -22 -71 -55 -84 -73 -46 -60 -42 -62 11 -4 30 32 73
69 97 83 39 23 52 34 40 34 -2 0 -31 -18 -64 -40z"/>
<path d="M7660 4767 c0 -3 20 -17 44 -31 24 -14 67 -51 96 -83 29 -32 48 -47
40 -34 -18 35 -91 103 -139 129 -22 13 -41 21 -41 19z"/>
<path d="M511 4665 c-22 -24 -41 -48 -41 -51 0 -4 1 -5 3 -3 2 2 23 25 47 52
23 26 40 47 38 47 -3 0 -24 -20 -47 -45z"/>
<path d="M4240 4675 c19 -19 36 -35 39 -35 3 0 -10 16 -29 35 -19 19 -36 35
-39 35 -3 0 10 -16 29 -35z"/>
<path d="M6899 4673 l-34 -38 38 34 c34 33 42 41 34 41 -2 0 -19 -17 -38 -37z"/>
<path d="M10630 4665 c24 -27 46 -52 48 -55 3 -3 0 4 -6 15 -6 11 -27 36 -48
55 -36 33 -36 33 6 -15z"/>
<path d="M4303 4581 c12 -27 23 -45 25 -41 3 9 -35 90 -43 90 -2 0 6 -22 18
-49z"/>
<path d="M6840 4589 c-12 -22 -20 -44 -18 -49 2 -4 13 14 25 41 26 59 21 65
-7 8z"/>
<path d="M3428 4583 c7 -3 16 -2 19 1 4 3 -2 6 -13 5 -11 0 -14 -3 -6 -6z"/>
<path d="M3607 4583 c-3 -5 5 -8 18 -8 13 0 21 3 18 8 -2 4 -10 7 -18 7 -8 0
-16 -3 -18 -7z"/>
<path d="M6970 4586 c0 -2 7 -7 16 -10 8 -3 12 -2 9 4 -6 10 -25 14 -25 6z"/>
<path d="M7060 4586 c0 -2 7 -7 16 -10 8 -3 12 -2 9 4 -6 10 -25 14 -25 6z"/>
<path d="M7158 4583 c7 -3 16 -2 19 1 4 3 -2 6 -13 5 -11 0 -14 -3 -6 -6z"/>
<path d="M446 4565 c-3 -9 -6 -22 -5 -28 0 -7 5 -1 10 12 5 13 8 26 5 28 -2 2
-6 -3 -10 -12z"/>
<path d="M4110 4570 c0 -5 5 -10 11 -10 5 0 7 5 4 10 -3 6 -8 10 -11 10 -2 0
-4 -4 -4 -10z"/>
<path d="M10691 4575 c1 -19 18 -51 18 -35 0 8 -4 22 -9 30 -5 8 -9 11 -9 5z"/>
<path d="M1481 4554 c0 -11 3 -14 6 -6 3 7 2 16 -1 19 -3 4 -6 -2 -5 -13z"/>
<path d="M3690 4563 c5 -2 10 -14 10 -25 0 -15 -4 -18 -17 -13 -15 5 -16 4 -5
-6 9 -10 15 -10 23 -2 14 14 8 46 -9 49 -7 1 -8 0 -2 -3z"/>
<path d="M3730 4561 c0 -5 13 -7 29 -5 25 3 30 -1 34 -21 4 -23 4 -23 3 2 -1
24 -6 28 -33 30 -18 2 -33 -1 -33 -6z"/>
<path d="M3933 4564 c9 -3 17 -14 17 -24 0 -10 -8 -21 -17 -24 -14 -4 -14 -4
2 -3 14 2 20 10 20 27 0 17 -6 25 -20 27 -16 1 -16 1 -2 -3z"/>
<path d="M3992 4564 c9 -3 19 -16 21 -30 4 -21 4 -21 3 3 -1 20 -7 28 -21 30
-14 1 -15 0 -3 -3z"/>
<path d="M4068 4563 c7 -3 16 -2 19 1 4 3 -2 6 -13 5 -11 0 -14 -3 -6 -6z"/>
<path d="M4158 4563 c7 -3 16 -2 19 1 4 3 -2 6 -13 5 -11 0 -14 -3 -6 -6z"/>
<path d="M7142 4550 c0 -14 2 -19 5 -12 2 6 2 18 0 25 -3 6 -5 1 -5 -13z"/>
<path d="M7214 4555 c-9 -23 3 -45 23 -44 17 1 17 2 1 6 -10 2 -18 13 -18 23
0 10 8 21 18 23 16 4 16 5 -1 6 -10 0 -20 -6 -23 -14z"/>
<path d="M7272 4540 c0 -19 2 -27 5 -17 2 9 2 25 0 35 -3 9 -5 1 -5 -18z"/>
<path d="M7295 4560 c3 -5 8 -10 11 -10 2 0 4 5 4 10 0 6 -5 10 -11 10 -5 0
-7 -4 -4 -10z"/>
<path d="M7362 4540 c0 -19 2 -27 5 -17 2 9 2 25 0 35 -3 9 -5 1 -5 -18z"/>
<path d="M7398 4563 c7 -3 16 -2 19 1 4 3 -2 6 -13 5 -11 0 -14 -3 -6 -6z"/>
<path d="M7442 4540 c0 -19 2 -27 5 -17 2 9 2 25 0 35 -3 9 -5 1 -5 -18z"/>
<path d="M7464 4555 c-4 -8 -4 -22 0 -30 6 -16 36 -21 36 -5 0 5 -7 7 -15 4
-11 -4 -15 0 -15 16 0 16 4 20 15 16 8 -3 15 -1 15 4 0 16 -30 11 -36 -5z"/>
<path d="M7521 4538 c2 -30 2 -30 6 -6 2 15 12 29 21 31 12 3 10 5 -5 6 -20 1
-23 -4 -22 -31z"/>
<path d="M7582 4540 c0 -19 2 -27 5 -17 2 9 2 25 0 35 -3 9 -5 1 -5 -18z"/>
<path d="M7605 4560 c-3 -6 1 -7 9 -4 18 7 21 14 7 14 -6 0 -13 -4 -16 -10z"/>
<path d="M7698 4563 c7 -3 16 -2 19 1 4 3 -2 6 -13 5 -11 0 -14 -3 -6 -6z"/>
<path d="M9661 4554 c0 -11 3 -14 6 -6 3 7 2 16 -1 19 -3 4 -6 -2 -5 -13z"/>
<path d="M5051 4544 c0 -11 3 -14 6 -6 3 7 2 16 -1 19 -3 4 -6 -2 -5 -13z"/>
<path d="M6091 4544 c0 -11 3 -14 6 -6 3 7 2 16 -1 19 -3 4 -6 -2 -5 -13z"/>
<path d="M4171 4536 c-1 -13 -6 -16 -18 -11 -15 5 -16 4 -5 -6 15 -16 37 2 29
23 -4 8 -6 6 -6 -6z"/>
<path d="M7713 4536 c3 -8 -1 -17 -9 -19 -9 -3 -8 -4 3 -3 20 1 32 36 13 36
-7 0 -10 -6 -7 -14z"/>
<path d="M3268 4508 c-2 -18 0 -46 3 -63 5 -22 7 -13 8 33 1 67 -4 83 -11 30z"/>
<path d="M3450 4532 c0 -6 -8 -13 -17 -15 -16 -4 -16 -5 -1 -6 18 -1 34 16 24
26 -3 4 -6 1 -6 -5z"/>
<path d="M7870 4480 c0 -35 3 -61 6 -57 7 7 7 107 0 115 -3 3 -6 -23 -6 -58z"/>
<path d="M780 4521 c0 -4 11 -6 25 -3 14 2 25 6 25 8 0 2 -11 4 -25 4 -14 0
-25 -4 -25 -9z"/>
<path d="M1490 4480 c0 -29 3 -51 6 -47 8 7 7 87 0 95 -3 3 -6 -19 -6 -48z"/>
<path d="M3607 4518 c2 -5 10 -8 18 -8 8 0 16 3 18 8 3 4 -5 7 -18 7 -13 0
-21 -3 -18 -7z"/>
<path d="M5458 4523 c7 -3 16 -2 19 1 4 3 -2 6 -13 5 -11 0 -14 -3 -6 -6z"/>
<path d="M5540 4521 c0 -5 9 -7 20 -4 11 3 20 7 20 9 0 2 -9 4 -20 4 -11 0
-20 -4 -20 -9z"/>
<path d="M9653 4480 c0 -30 2 -43 4 -27 2 15 2 39 0 55 -2 15 -4 2 -4 -28z"/>
<path d="M431 4479 c0 -24 4 -53 9 -64 5 -12 6 4 3 40 -7 72 -13 85 -12 24z"/>
<path d="M902 4485 c0 -22 2 -31 5 -20 3 11 12 26 21 34 16 13 16 13 0 8 -9
-3 -19 -1 -22 6 -2 7 -4 -6 -4 -28z"/>
<path d="M1190 4492 c0 -17 3 -33 8 -35 9 -6 8 50 -1 60 -4 3 -7 -8 -7 -25z"/>
<path d="M3848 4513 c7 -3 16 -2 19 1 4 3 -2 6 -13 5 -11 0 -14 -3 -6 -6z"/>
<path d="M4068 4513 c7 -3 16 -2 19 1 4 3 -2 6 -13 5 -11 0 -14 -3 -6 -6z"/>
<path d="M4333 4480 c0 -25 2 -35 4 -22 2 12 2 32 0 45 -2 12 -4 2 -4 -23z"/>
<path d="M5043 4475 c0 -27 2 -38 4 -22 2 15 2 37 0 50 -2 12 -4 0 -4 -28z"/>
<path d="M6103 4475 c0 -27 2 -38 4 -22 2 15 2 37 0 50 -2 12 -4 0 -4 -28z"/>
<path d="M6813 4480 c0 -25 2 -35 4 -22 2 12 2 32 0 45 -2 12 -4 2 -4 -23z"/>
<path d="M7158 4513 c6 -2 18 -2 25 0 6 3 1 5 -13 5 -14 0 -19 -2 -12 -5z"/>
<path d="M7398 4513 c7 -3 16 -2 19 1 4 3 -2 6 -13 5 -11 0 -14 -3 -6 -6z"/>
<path d="M9860 4515 c-1 -5 -1 -19 0 -29 1 -14 -3 -17 -17 -12 -16 5 -16 4 2
-10 19 -14 20 -14 23 6 4 21 -4 63 -8 45z"/>
<path d="M9953 4485 c0 -22 2 -30 4 -17 2 12 2 30 0 40 -3 9 -5 -1 -4 -23z"/>
<path d="M10712 4485 c-1 -22 -5 -51 -7 -65 l-6 -25 11 25 c6 13 9 42 7 65
l-4 40 -1 -40z"/>
<path d="M858 4503 c7 -3 16 -2 19 1 4 3 -2 6 -13 5 -11 0 -14 -3 -6 -6z"/>
<path d="M961 4478 c2 -28 2 -29 6 -8 3 14 10 28 17 32 7 5 5 8 -6 8 -14 0
-18 -8 -17 -32z"/>
<path d="M1038 4503 c7 -3 16 -2 19 1 4 3 -2 6 -13 5 -11 0 -14 -3 -6 -6z"/>
<path d="M1088 4503 c7 -3 16 -2 19 1 4 3 -2 6 -13 5 -11 0 -14 -3 -6 -6z"/>
<path d="M1131 4478 c2 -30 2 -30 6 -6 2 15 12 29 21 31 12 3 10 5 -5 6 -20 1
-23 -4 -22 -31z"/>
<path d="M1224 4495 c-9 -22 3 -45 23 -44 16 0 16 1 -2 9 -17 7 -17 9 -2 9 10
1 17 9 17 21 0 23 -28 27 -36 5z m26 -5 c0 -5 -4 -10 -10 -10 -5 0 -10 5 -10
10 0 6 5 10 10 10 6 0 10 -4 10 -10z"/>
<path d="M3205 4480 c0 -25 2 -26 23 -17 12 6 22 13 22 17 0 4 -10 11 -22 17
-21 9 -23 8 -23 -17z"/>
<path d="M4978 4479 c4 -25 6 -26 23 -16 25 15 24 22 -4 34 -22 10 -23 9 -19
-18z"/>
<path d="M5471 4487 c-13 -21 -12 -21 5 -5 10 10 16 20 13 22 -3 3 -11 -5 -18
-17z"/>
<path d="M5615 4501 c-3 -7 0 -8 9 -5 11 4 16 0 16 -14 0 -11 -6 -22 -12 -25
-8 -2 -7 -3 2 -3 9 1 15 11 15 25 0 26 -19 39 -30 22z"/>
<path d="M5698 4503 c7 -3 16 -2 19 1 4 3 -2 6 -13 5 -11 0 -14 -3 -6 -6z"/>
<path d="M5758 4503 c7 -3 16 -2 19 1 4 3 -2 6 -13 5 -11 0 -14 -3 -6 -6z"/>
<path d="M6748 4480 c4 -27 6 -28 26 -18 11 6 23 12 24 14 2 1 -9 9 -25 18
l-29 15 4 -29z"/>
<path d="M9585 4480 c0 -25 2 -26 23 -17 12 6 22 13 22 17 0 4 -10 11 -22 17
-21 9 -23 8 -23 -17z"/>
<path d="M9980 4500 c0 -5 6 -7 14 -4 10 4 16 -3 19 -23 4 -27 4 -27 6 5 1 26
-3 32 -19 32 -11 0 -20 -4 -20 -10z"/>
<path d="M10094 4496 c-9 -23 3 -46 23 -45 16 0 16 1 -2 9 -18 8 -18 9 -2 9
12 1 17 7 15 18 -4 22 -27 28 -34 9z m26 -6 c0 -5 -4 -10 -10 -10 -5 0 -10 5
-10 10 0 6 5 10 10 10 6 0 10 -4 10 -10z"/>
<path d="M10150 4493 c0 -10 4 -14 8 -8 4 6 11 13 16 18 5 4 2 7 -7 7 -10 0
-17 -8 -17 -17z"/>
<path d="M10198 4503 c7 -3 16 -2 19 1 4 3 -2 6 -13 5 -11 0 -14 -3 -6 -6z"/>
<path d="M10242 4480 c0 -19 2 -27 5 -17 2 9 2 25 0 35 -3 9 -5 1 -5 -18z"/>
<path d="M10264 4495 c-9 -23 3 -45 23 -44 17 1 17 2 1 6 -10 2 -18 14 -18 25
0 14 5 18 15 14 8 -3 15 -1 15 4 0 16 -30 11 -36 -5z"/>
<path d="M10321 4478 c2 -32 2 -32 6 -5 3 20 9 27 19 23 8 -3 14 -1 14 4 0 6
-9 10 -20 10 -16 0 -20 -6 -19 -32z"/>
<path d="M10405 4500 c-3 -6 1 -7 9 -4 18 7 21 14 7 14 -6 0 -13 -4 -16 -10z"/>
<path d="M10495 4500 c-3 -6 1 -7 9 -4 18 7 21 14 7 14 -6 0 -13 -4 -16 -10z"/>
<path d="M780 4489 c0 -5 9 -9 20 -9 11 0 20 2 20 4 0 2 -9 6 -20 9 -11 3 -20
1 -20 -4z"/>
<path d="M865 4480 c-16 -7 -17 -9 -3 -9 9 -1 19 -7 21 -13 3 -7 6 -3 6 10 1
12 0 22 -1 21 -2 0 -12 -4 -23 -9z"/>
<path d="M1095 4480 c-16 -7 -17 -9 -3 -9 9 -1 19 -7 21 -13 3 -7 6 -3 6 10 1
12 0 22 -1 21 -2 0 -12 -4 -23 -9z"/>
<path d="M5385 4478 c4 -11 0 -18 -12 -21 -15 -4 -16 -5 -1 -6 22 -1 33 18 19
32 -9 9 -11 8 -6 -5z"/>
<path d="M5558 4483 c27 -6 29 -20 2 -27 -17 -5 -17 -6 3 -3 31 3 28 32 -3 34
-22 1 -22 1 -2 -4z"/>
<path d="M5758 4479 c-24 -13 -23 -29 2 -29 13 0 20 7 20 20 0 23 1 23 -22 9z"/>
<path d="M10508 4483 c-19 -5 -25 -33 -7 -33 5 0 7 5 4 10 -3 6 -2 10 4 10 5
0 12 -6 14 -12 3 -7 6 -3 6 10 1 12 0 21 -1 21 -2 -1 -11 -3 -20 -6z"/>
<path d="M1038 4453 c7 -3 16 -2 19 1 4 3 -2 6 -13 5 -11 0 -14 -3 -6 -6z"/>
<path d="M5458 4453 c7 -3 16 -2 19 1 4 3 -2 6 -13 5 -11 0 -14 -3 -6 -6z"/>
<path d="M5698 4453 c7 -3 16 -2 19 1 4 3 -2 6 -13 5 -11 0 -14 -3 -6 -6z"/>
<path d="M10198 4453 c7 -3 16 -2 19 1 4 3 -2 6 -13 5 -11 0 -14 -3 -6 -6z"/>
<path d="M3774 4435 c-14 -12 -15 -14 -2 -9 12 4 18 -1 21 -23 3 -23 4 -22 6
10 1 42 1 42 -25 22z"/>
<path d="M3896 4437 c-16 -12 -16 -13 3 -13 12 0 21 6 21 13 0 7 -1 13 -3 13
-2 0 -11 -6 -21 -13z"/>
<path d="M3644 4426 c-8 -21 2 -46 18 -46 9 0 8 3 -2 10 -13 8 -12 10 3 10 12
0 17 6 15 17 -4 22 -27 28 -34 9z m26 -6 c0 -5 -4 -10 -10 -10 -5 0 -10 5 -10
10 0 6 5 10 10 10 6 0 10 -4 10 -10z"/>
<path d="M3701 4408 c2 -32 2 -32 6 -5 3 20 9 27 19 23 9 -3 12 -1 9 4 -14 23
-35 9 -34 -22z"/>
<path d="M3840 4433 c17 -8 11 -21 -12 -26 -19 -4 -18 -5 5 -6 22 -1 28 3 25
16 -2 9 -9 18 -16 19 -7 1 -8 0 -2 -3z"/>
<path d="M3935 4420 c-8 -25 1 -40 23 -39 15 1 15 2 0 6 -10 2 -18 11 -18 18
0 8 8 19 18 24 15 9 16 10 0 11 -9 0 -19 -9 -23 -20z"/>
<path d="M3994 4426 c-3 -8 -4 -23 -1 -33 3 -12 5 -9 6 9 0 14 7 29 14 31 9 4
9 6 -1 6 -7 1 -15 -5 -18 -13z"/>
<path d="M7110 4436 c0 -2 7 -7 16 -10 8 -3 12 -2 9 4 -6 10 -25 14 -25 6z"/>
<path d="M7154 4425 c-9 -23 3 -45 23 -44 17 1 17 2 1 6 -10 2 -18 14 -18 25
0 14 5 18 16 14 8 -3 12 -2 9 4 -9 15 -25 12 -31 -5z"/>
<path d="M7212 4410 c0 -19 2 -27 5 -17 2 9 2 25 0 35 -3 9 -5 1 -5 -18z"/>
<path d="M7268 4410 c2 -16 6 -30 8 -30 2 0 4 14 4 30 0 17 -4 30 -8 30 -5 0
-7 -13 -4 -30z"/>
<path d="M7302 4398 c1 -41 1 -41 5 -8 3 19 10 38 16 42 8 5 6 8 -5 8 -15 0
-18 -8 -16 -42z"/>
<path d="M7360 4410 c0 -16 2 -30 4 -30 2 0 6 14 8 30 3 17 1 30 -4 30 -4 0
-8 -13 -8 -30z"/>
<path d="M7408 4433 c7 -3 16 -2 19 1 4 3 -2 6 -13 5 -11 0 -14 -3 -6 -6z"/>
<path d="M7470 4430 c20 -13 33 -13 25 0 -3 6 -14 10 -23 10 -15 0 -15 -2 -2
-10z"/>
<path d="M7514 4425 c-9 -23 3 -45 23 -44 17 1 17 2 1 6 -10 2 -18 14 -18 25
0 14 5 18 16 14 8 -3 12 -2 9 4 -9 15 -25 12 -31 -5z"/>
<path d="M7575 4429 c-11 -16 -1 -19 13 -3 7 8 8 14 3 14 -5 0 -13 -5 -16 -11z"/>
<path d="M4321 4423 c-1 -6 -4 -20 -7 -30 -5 -17 -5 -17 6 0 6 10 9 23 6 30
-3 9 -5 9 -5 0z"/>
<path d="M6821 4420 c0 -8 4 -22 9 -30 12 -18 12 -2 0 25 -6 13 -9 15 -9 5z"/>
<path d="M1481 4404 c0 -11 3 -14 6 -6 3 7 2 16 -1 19 -3 4 -6 -2 -5 -13z"/>
<path d="M9661 4404 c0 -11 3 -14 6 -6 3 7 2 16 -1 19 -3 4 -6 -2 -5 -13z"/>
<path d="M7408 4403 c6 -2 18 -2 25 0 6 3 1 5 -13 5 -14 0 -19 -2 -12 -5z"/>
<path d="M3280 4397 c-1 -27 75 -125 123 -159 18 -13 8 1 -24 33 -31 30 -66
72 -77 94 -12 22 -21 36 -22 32z"/>
<path d="M3895 4390 c-19 -8 -19 -9 3 -9 12 -1 22 4 22 9 0 6 -1 10 -2 9 -2 0
-12 -4 -23 -9z"/>
<path d="M7849 4368 c-7 -18 -40 -59 -73 -92 -34 -34 -46 -50 -29 -38 50 36
133 145 120 158 -2 3 -10 -10 -18 -28z"/>
<path d="M450 4384 c0 -6 14 -31 31 -57 33 -51 95 -100 176 -141 82 -41 77
-30 -6 14 -82 43 -152 105 -181 160 -11 19 -19 30 -20 24z"/>
<path d="M10681 4362 c-19 -46 -101 -119 -182 -162 -41 -22 -70 -40 -65 -40
22 0 152 78 191 115 41 41 81 102 72 111 -2 3 -10 -8 -16 -24z"/>
<path d="M5081 4338 c18 -34 94 -105 130 -122 19 -9 25 -11 14 -4 -11 7 -50
43 -88 80 -37 37 -62 58 -56 46z"/>
<path d="M6010 4291 c-36 -36 -74 -72 -85 -79 -11 -7 -5 -5 14 4 36 17 112 88
130 123 16 29 15 28 -59 -48z"/>
<path d="M4247 4295 c-32 -36 -71 -66 -121 -91 -41 -21 -73 -40 -71 -42 1 -2
31 11 65 28 61 31 152 106 171 142 15 27 8 22 -44 -37z"/>
<path d="M6858 4335 c20 -38 109 -113 172 -145 34 -17 64 -30 65 -28 2 2 -30
21 -70 42 -50 25 -92 56 -126 94 -29 32 -47 48 -41 37z"/>
<path d="M1415 4297 c-22 -24 -53 -53 -70 -66 -16 -12 -23 -19 -15 -15 31 15
90 66 110 95 30 41 22 36 -25 -14z"/>
<path d="M9709 4313 c20 -30 79 -81 111 -97 8 -4 2 3 -15 15 -16 13 -50 43
-74 68 -33 35 -39 38 -22 14z"/>
<path d="M1255 4184 c-27 -13 -39 -21 -25 -18 29 8 80 32 80 39 0 6 4 8 -55
-21z"/>
<path d="M3460 4205 c0 -7 61 -37 66 -33 2 3 -12 12 -31 21 -19 9 -35 15 -35
12z"/>
<path d="M7650 4190 c-19 -11 -31 -19 -27 -20 11 0 67 29 67 35 0 7 -1 7 -40
-15z"/>
<path d="M9840 4204 c0 -7 91 -46 96 -42 2 2 -19 14 -46 25 -28 12 -50 19 -50
17z"/>
<path d="M5257 4189 c7 -7 15 -10 18 -7 3 3 -2 9 -12 12 -14 6 -15 5 -6 -5z"/>
<path d="M5880 4190 c-9 -6 -10 -10 -3 -10 6 0 15 5 18 10 8 12 4 12 -15 0z"/>
<path d="M5300 4170 c8 -5 20 -10 25 -10 6 0 3 5 -5 10 -8 5 -19 10 -25 10 -5
0 -3 -5 5 -10z"/>
<path d="M5830 4170 c-8 -5 -10 -10 -5 -10 6 0 17 5 25 10 8 5 11 10 5 10 -5
0 -17 -5 -25 -10z"/>
<path d="M778 4143 c7 -3 16 -2 19 1 4 3 -2 6 -13 5 -11 0 -14 -3 -6 -6z"/>
<path d="M1138 4143 c7 -3 16 -2 19 1 4 3 -2 6 -13 5 -11 0 -14 -3 -6 -6z"/>
<path d="M3608 4143 c7 -3 16 -2 19 1 4 3 -2 6 -13 5 -11 0 -14 -3 -6 -6z"/>
<path d="M3978 4143 c7 -3 16 -2 19 1 4 3 -2 6 -13 5 -11 0 -14 -3 -6 -6z"/>
<path d="M5388 4143 c7 -3 16 -2 19 1 4 3 -2 6 -13 5 -11 0 -14 -3 -6 -6z"/>
<path d="M5748 4143 c7 -3 16 -2 19 1 4 3 -2 6 -13 5 -11 0 -14 -3 -6 -6z"/>
<path d="M7158 4143 c7 -3 16 -2 19 1 4 3 -2 6 -13 5 -11 0 -14 -3 -6 -6z"/>
<path d="M7528 4143 c7 -3 16 -2 19 1 4 3 -2 6 -13 5 -11 0 -14 -3 -6 -6z"/>
<path d="M9998 4143 c7 -3 16 -2 19 1 4 3 -2 6 -13 5 -11 0 -14 -3 -6 -6z"/>
<path d="M10358 4143 c7 -3 16 -2 19 1 4 3 -2 6 -13 5 -11 0 -14 -3 -6 -6z"/>
<path d="M828 4133 c6 -2 18 -2 25 0 6 3 1 5 -13 5 -14 0 -19 -2 -12 -5z"/>
<path d="M1078 4133 c6 -2 18 -2 25 0 6 3 1 5 -13 5 -14 0 -19 -2 -12 -5z"/>
<path d="M3668 4133 c6 -2 18 -2 25 0 6 3 1 5 -13 5 -14 0 -19 -2 -12 -5z"/>
<path d="M3918 4133 c6 -2 18 -2 25 0 6 3 1 5 -13 5 -14 0 -19 -2 -12 -5z"/>
<path d="M5438 4133 c6 -2 18 -2 25 0 6 3 1 5 -13 5 -14 0 -19 -2 -12 -5z"/>
<path d="M5688 4133 c6 -2 18 -2 25 0 6 3 1 5 -13 5 -14 0 -19 -2 -12 -5z"/>
<path d="M7208 4133 c6 -2 18 -2 25 0 6 3 1 5 -13 5 -14 0 -19 -2 -12 -5z"/>
<path d="M7458 4133 c6 -2 18 -2 25 0 6 3 1 5 -13 5 -14 0 -19 -2 -12 -5z"/>
<path d="M10048 4133 c6 -2 18 -2 25 0 6 3 1 5 -13 5 -14 0 -19 -2 -12 -5z"/>
<path d="M10298 4133 c6 -2 18 -2 25 0 6 3 1 5 -13 5 -14 0 -19 -2 -12 -5z"/>
<path d="M918 4123 c23 -2 42 -6 42 -9 0 -3 -7 -19 -16 -36 -15 -28 -15 -30 0
-25 15 6 16 -128 16 -1558 l0 -1564 -37 -4 c-21 -2 -2 -4 42 -4 44 0 63 2 43
4 l-38 4 0 1564 c0 1386 2 1564 15 1559 19 -8 19 0 0 36 l-15 29 43 4 c23 2 2
4 -48 4 -49 0 -71 -2 -47 -4z"/>
<path d="M3758 4123 l42 -4 0 -366 c0 -320 -2 -364 -15 -359 -19 7 -19 2 0
-34 l16 -30 -266 0 -265 0 2 -272 3 -273 2 268 3 267 525 0 525 0 3 -267 2
-268 3 273 2 272 -265 0 c-146 0 -265 2 -265 5 0 4 7 20 16 37 15 28 15 30 0
25 -14 -6 -16 28 -16 358 l0 364 43 4 c23 2 2 4 -48 4 -49 0 -71 -2 -47 -4z"/>
<path d="M5528 4123 l42 -4 0 -364 c0 -320 -2 -364 -15 -359 -19 8 -19 0 0
-36 l16 -30 -266 0 -265 0 2 -272 3 -273 2 268 3 267 525 0 525 0 3 -267 2
-268 3 273 2 272 -265 0 -266 0 16 30 c19 36 19 44 0 36 -13 -5 -15 39 -15
359 l0 364 43 4 c23 2 2 4 -48 4 -49 0 -71 -2 -47 -4z"/>
<path d="M7303 4123 c26 -2 67 -2 90 0 23 2 2 3 -48 3 -49 0 -68 -1 -42 -3z"/>
<path d="M10138 4123 l42 -4 0 -1564 c0 -1386 -2 -1564 -15 -1559 -19 8 -19 0
0 -36 l15 -29 -38 -4 c-20 -2 -1 -4 43 -4 44 0 63 2 43 4 -44 5 -43 4 -22 45
15 28 15 30 0 25 -15 -6 -16 128 -16 1558 l0 1564 43 4 c23 2 2 4 -48 4 -49 0
-71 -2 -47 -4z"/>
<path d="M3520 3206 c0 -2 7 -7 16 -10 8 -3 12 -2 9 4 -6 10 -25 14 -25 6z"/>
<path d="M3570 3201 c0 -5 13 -7 29 -5 25 3 30 -1 34 -21 4 -23 4 -23 3 2 -1
24 -6 28 -33 30 -18 2 -33 -1 -33 -6z"/>
<path d="M3774 3195 c-9 -23 3 -45 23 -44 17 1 17 2 1 6 -10 2 -18 8 -18 13 0
5 8 11 18 13 14 4 14 5 -3 6 -17 1 -18 3 -5 11 10 7 11 10 2 10 -7 0 -15 -7
-18 -15z"/>
<path d="M3898 3203 c7 -3 16 -2 19 1 4 3 -2 6 -13 5 -11 0 -14 -3 -6 -6z"/>
<path d="M4022 3180 c0 -19 2 -27 5 -17 2 9 2 25 0 35 -3 9 -5 1 -5 -18z"/>
<path d="M4050 3206 c0 -2 7 -6 15 -10 8 -3 15 -1 15 4 0 6 -7 10 -15 10 -8 0
-15 -2 -15 -4z"/>
<path d="M4118 3203 c7 -3 16 -2 19 1 4 3 -2 6 -13 5 -11 0 -14 -3 -6 -6z"/>
<path d="M3718 3193 c6 -2 18 -2 25 0 6 3 1 5 -13 5 -14 0 -19 -2 -12 -5z"/>
<path d="M4107 3183 c-14 -13 -6 -33 13 -33 13 0 20 7 20 20 0 19 -20 27 -33
13z m23 -13 c0 -5 -4 -10 -10 -10 -5 0 -10 5 -10 10 0 6 5 10 10 10 6 0 10 -4
10 -10z"/>
<path d="M3540 3171 c0 -8 -7 -11 -17 -6 -15 5 -16 4 -5 -6 9 -10 15 -10 24
-1 6 6 9 15 5 19 -4 3 -7 1 -7 -6z"/>
<path d="M3718 3173 c6 -2 18 -2 25 0 6 3 1 5 -13 5 -14 0 -19 -2 -12 -5z"/>
<path d="M3990 3169 c0 -6 -7 -8 -16 -5 -8 3 -12 2 -9 -4 10 -15 35 -12 35 5
0 8 -2 15 -5 15 -3 0 -5 -5 -5 -11z"/>
<path d="M3665 3160 c3 -5 8 -10 11 -10 2 0 4 5 4 10 0 6 -5 10 -11 10 -5 0
-7 -4 -4 -10z"/>
<path d="M4060 3160 c-13 -8 -12 -10 3 -10 9 0 17 5 17 10 0 12 -1 12 -20 0z"/>
<path d="M3468 3153 c7 -3 16 -2 19 1 4 3 -2 6 -13 5 -11 0 -14 -3 -6 -6z"/>
<path d="M3898 3153 c7 -3 16 -2 19 1 4 3 -2 6 -13 5 -11 0 -14 -3 -6 -6z"/>
<path d="M3337 3103 c-4 -3 -6 -22 -6 -42 1 -20 3 -28 6 -18 2 9 11 17 18 17
8 0 16 4 19 9 4 5 -3 7 -14 4 -14 -4 -20 0 -20 12 0 12 6 16 20 12 11 -3 18
-1 14 4 -6 11 -28 12 -37 2z"/>
<path d="M4226 3101 c-4 -5 3 -7 14 -4 23 6 26 13 6 13 -8 0 -17 -4 -20 -9z"/>
<path d="M5375 3100 c-7 -12 2 -12 30 0 19 8 19 9 -2 9 -12 1 -25 -3 -28 -9z"/>
<path d="M5456 3101 c-4 -5 3 -7 14 -4 23 6 26 13 6 13 -8 0 -17 -4 -20 -9z"/>
<path d="M5650 3100 c20 -13 33 -13 25 0 -3 6 -14 10 -23 10 -15 0 -15 -2 -2
-10z"/>
<path d="M3575 3090 c-3 -5 -1 -10 4 -10 6 0 11 5 11 10 0 6 -2 10 -4 10 -3 0
-8 -4 -11 -10z"/>
<path d="M4001 3084 c0 -11 3 -14 6 -6 3 7 2 16 -1 19 -3 4 -6 -2 -5 -13z"/>
<path d="M3400 3075 c0 -8 2 -15 4 -15 2 0 6 7 10 15 3 8 1 15 -4 15 -6 0 -10
-7 -10 -15z"/>
<path d="M3762 3065 c0 -16 2 -22 5 -12 2 9 2 23 0 30 -3 6 -5 -1 -5 -18z"/>
<path d="M3852 3065 c0 -16 2 -22 5 -12 2 9 2 23 0 30 -3 6 -5 -1 -5 -18z"/>
<path d="M5420 3080 c0 -5 -12 -11 -27 -11 -21 -1 -23 -3 -8 -6 11 -3 24 -12
30 -19 8 -11 10 -7 11 16 1 16 0 30 -2 30 -2 0 -4 -4 -4 -10z"/>
<path d="M3473 3073 c9 -2 23 -2 30 0 6 3 -1 5 -18 5 -16 0 -22 -2 -12 -5z"/>
<path d="M3654 3066 c-10 -8 -17 -16 -14 -19 3 -2 14 4 24 14 23 22 18 25 -10
5z"/>
<path d="M3706 3071 c-4 -5 3 -7 14 -4 23 6 26 13 6 13 -8 0 -17 -4 -20 -9z"/>
<path d="M5553 3073 c9 -2 23 -2 30 0 6 3 -1 5 -18 5 -16 0 -22 -2 -12 -5z"/>
<path d="M4228 3063 c6 -2 18 -2 25 0 6 3 1 5 -13 5 -14 0 -19 -2 -12 -5z"/>
<path d="M5458 3063 c6 -2 18 -2 25 0 6 3 1 5 -13 5 -14 0 -19 -2 -12 -5z"/>
<path d="M3550 3048 c0 -4 12 -8 27 -8 14 0 23 3 19 7 -10 10 -46 11 -46 1z"/>
<path d="M3936 3043 c-6 -14 -5 -15 5 -6 7 7 10 15 7 18 -3 3 -9 -2 -12 -12z"/>
<path d="M3478 3043 c6 -2 18 -2 25 0 6 3 1 5 -13 5 -14 0 -19 -2 -12 -5z"/>
<path d="M5548 3043 c6 -2 18 -2 25 0 6 3 1 5 -13 5 -14 0 -19 -2 -12 -5z"/>
<path d="M3689 2962 c7 -5 11 -14 7 -20 -3 -6 -2 -13 2 -16 5 -3 9 4 8 16 0
12 -8 23 -16 25 -12 4 -13 3 -1 -5z"/>
<path d="M3752 2956 c7 -8 15 -12 17 -11 5 6 -10 25 -20 25 -5 0 -4 -6 3 -14z"/>
<path d="M4001 2944 c0 -11 3 -14 6 -6 3 7 2 16 -1 19 -3 4 -6 -2 -5 -13z"/>
<path d="M3532 2925 c0 -16 2 -22 5 -12 2 9 2 23 0 30 -3 6 -5 -1 -5 -18z"/>
<path d="M3618 2943 c7 -3 16 -2 19 1 4 3 -2 6 -13 5 -11 0 -14 -3 -6 -6z"/>
<path d="M3910 2920 c0 -22 5 -30 18 -30 13 0 14 2 3 9 -8 5 -12 18 -8 30 3
12 1 21 -4 21 -5 0 -9 -13 -9 -30z"/>
<path d="M3560 2910 c0 -5 5 -10 11 -10 5 0 7 5 4 10 -3 6 -8 10 -11 10 -2 0
-4 -4 -4 -10z"/>
<path d="M3618 2913 c6 -2 18 -2 25 0 6 3 1 5 -13 5 -14 0 -19 -2 -12 -5z"/>
<path d="M3752 2904 c-7 -8 -8 -14 -3 -14 10 0 25 19 20 25 -2 1 -10 -3 -17
-11z"/>
<path d="M4040 2910 c0 -5 5 -10 11 -10 5 0 7 5 4 10 -3 6 -8 10 -11 10 -2 0
-4 -4 -4 -10z"/>
<path d="M3690 2900 c-9 -6 -10 -10 -3 -10 6 0 15 5 18 10 8 12 4 12 -15 0z"/>
<path d="M3990 2900 c-9 -6 -10 -10 -3 -10 6 0 15 5 18 10 8 12 4 12 -15 0z"/>
<path d="M5218 2523 c200 -2 524 -2 720 0 196 1 33 2 -363 2 -396 0 -557 -1
-357 -2z"/>
<path d="M5193 2355 c0 -22 2 -30 4 -17 2 12 2 30 0 40 -3 9 -5 -1 -4 -23z"/>
<path d="M5248 2355 c2 -19 6 -35 8 -35 2 0 4 16 4 35 0 19 -4 35 -8 35 -4 0
-6 -16 -4 -35z"/>
<path d="M5633 2355 c0 -22 2 -30 4 -17 2 12 2 30 0 40 -3 9 -5 -1 -4 -23z"/>
<path d="M5897 2383 c-2 -5 0 -21 4 -38 7 -29 7 -29 8 8 1 35 -3 46 -12 30z"/>
<path d="M5953 2355 c0 -22 2 -30 4 -17 2 12 2 30 0 40 -3 9 -5 -1 -4 -23z"/>
<path d="M5285 2370 c-3 -6 1 -7 9 -4 18 7 21 14 7 14 -6 0 -13 -4 -16 -10z"/>
<path d="M5380 2376 c0 -2 7 -7 16 -10 8 -3 12 -2 9 4 -6 10 -25 14 -25 6z"/>
<path d="M5438 2373 c7 -3 16 -2 19 1 4 3 -2 6 -13 5 -11 0 -14 -3 -6 -6z"/>
<path d="M5487 2373 c-10 -9 -9 -41 2 -47 4 -3 6 6 3 21 -4 22 -2 25 12 20 10
-4 15 -3 11 3 -7 12 -19 13 -28 3z"/>
<path d="M5564 2368 c21 -16 16 -55 -5 -42 -8 5 -9 3 -4 -5 6 -10 11 -9 24 3
17 18 7 46 -20 54 -8 2 -5 -2 5 -10z"/>
<path d="M5860 2373 c16 -8 12 -23 -7 -24 -14 0 -15 -2 -3 -6 8 -3 19 -11 23
-17 4 -6 6 2 5 18 -2 16 -9 31 -16 32 -7 1 -8 0 -2 -3z"/>
<path d="M5332 2345 c0 -16 2 -22 5 -12 2 9 2 23 0 30 -3 6 -5 -1 -5 -18z"/>
<path d="M5722 2345 c0 -16 2 -22 5 -12 2 9 2 23 0 30 -3 6 -5 -1 -5 -18z"/>
<path d="M5288 2343 c6 -2 18 -2 25 0 6 3 1 5 -13 5 -14 0 -19 -2 -12 -5z"/>
<path d="M5424 2339 c-3 -6 -1 -16 5 -22 9 -9 11 -8 6 5 -4 11 0 18 12 21 15
4 16 5 1 6 -9 0 -20 -4 -24 -10z"/>
<path d="M5790 2346 c0 -2 7 -7 16 -10 8 -3 12 -2 9 4 -6 10 -25 14 -25 6z"/>
<path d="M5223 2163 c197 -2 517 -2 710 0 194 1 33 2 -358 2 -390 0 -549 -1
-352 -2z"/>
<path d="M800 910 c-17 -6 -9 -7 25 -3 28 3 52 7 54 9 8 7 -54 2 -79 -6z"/>
<path d="M1063 913 c9 -2 25 -2 35 0 9 3 1 5 -18 5 -19 0 -27 -2 -17 -5z"/>
<path d="M10053 913 c9 -2 25 -2 35 0 9 3 1 5 -18 5 -19 0 -27 -2 -17 -5z"/>
<path d="M10271 916 c2 -2 27 -6 54 -9 34 -4 42 -3 25 3 -25 8 -87 13 -79 6z"/>
<path d="M1128 903 c7 -3 16 -2 19 1 4 3 -2 6 -13 5 -11 0 -14 -3 -6 -6z"/>
<path d="M10008 903 c7 -3 16 -2 19 1 4 3 -2 6 -13 5 -11 0 -14 -3 -6 -6z"/>
<path d="M1175 890 c11 -5 27 -9 35 -9 9 0 8 4 -5 9 -11 5 -27 9 -35 9 -9 0
-8 -4 5 -9z"/>
<path d="M9945 890 c-13 -5 -14 -9 -5 -9 8 0 24 4 35 9 13 5 14 9 5 9 -8 0
-24 -4 -35 -9z"/>
<path d="M614 839 c-55 -35 -120 -94 -136 -124 -6 -11 11 4 38 32 27 29 76 69
108 88 33 19 55 35 50 35 -6 0 -32 -14 -60 -31z"/>
<path d="M1303 838 c32 -17 83 -59 114 -92 31 -33 51 -51 45 -40 -29 54 -169
164 -207 164 -5 0 16 -15 48 -32z"/>
<path d="M9832 839 c-54 -30 -124 -96 -144 -133 -6 -11 14 7 45 40 31 33 82
75 114 92 32 17 54 32 48 32 -5 0 -34 -14 -63 -31z"/>
<path d="M10526 835 c32 -19 81 -59 108 -88 27 -28 44 -43 38 -32 -24 44 -164
155 -196 155 -5 0 17 -16 50 -35z"/>
<path d="M446 655 c-3 -9 -6 -22 -5 -28 0 -7 5 -1 10 12 5 13 8 26 5 28 -2 2
-6 -3 -10 -12z"/>
<path d="M10691 665 c1 -19 18 -51 18 -35 0 8 -4 22 -9 30 -5 8 -9 11 -9 5z"/>
<path d="M1481 644 c0 -11 3 -14 6 -6 3 7 2 16 -1 19 -3 4 -6 -2 -5 -13z"/>
<path d="M9661 644 c0 -11 3 -14 6 -6 3 7 2 16 -1 19 -3 4 -6 -2 -5 -13z"/>
<path d="M723 613 c13 -3 17 -11 13 -25 -3 -15 -2 -18 6 -10 15 15 2 42 -19
41 -17 -1 -17 -2 0 -6z"/>
<path d="M1493 570 c0 -30 2 -45 4 -32 5 25 15 27 46 11 16 -9 22 -9 25 0 3 8
1021 11 4042 11 l4039 0 4 -23 c2 -12 4 3 4 33 0 30 -2 43 -4 28 l-4 -28
-4040 0 c-3584 0 -4039 2 -4039 15 0 19 -4 19 -40 0 -28 -15 -29 -14 -33 13
-2 15 -4 2 -4 -28z"/>
<path d="M10100 580 c0 -35 3 -40 23 -39 16 1 18 2 5 6 -10 2 -18 8 -18 13 0
5 8 11 18 13 16 4 16 5 0 6 -10 0 -18 7 -18 15 0 8 8 17 18 19 13 4 11 5 -5 6
-20 1 -23 -4 -23 -39z"/>
<path d="M431 569 c0 -24 4 -53 9 -64 5 -12 6 4 3 40 -7 72 -13 85 -12 24z"/>
<path d="M893 575 c0 -22 2 -30 4 -17 2 12 2 30 0 40 -3 9 -5 -1 -4 -23z"/>
<path d="M9984 598 c-4 -6 -3 -8 4 -4 7 4 12 -6 15 -26 4 -33 4 -33 5 5 2 36
-10 49 -24 25z"/>
<path d="M10712 575 c-1 -22 -5 -51 -7 -65 l-6 -25 11 25 c6 13 9 42 7 65 l-4
40 -1 -40z"/>
<path d="M920 591 c0 -5 13 -7 29 -5 25 3 30 -1 34 -21 4 -23 4 -23 3 2 -1 24
-6 28 -33 30 -18 2 -33 -1 -33 -6z"/>
<path d="M1018 593 c7 -3 16 -2 19 1 4 3 -2 6 -13 5 -11 0 -14 -3 -6 -6z"/>
<path d="M1078 593 c7 -3 16 -2 19 1 4 3 -2 6 -13 5 -11 0 -14 -3 -6 -6z"/>
<path d="M1133 594 c9 -3 17 -10 17 -15 0 -6 -9 -7 -20 -4 -12 4 -20 2 -20 -5
0 -6 10 -10 23 -8 27 4 29 32 2 35 -16 1 -16 1 -2 -3z"/>
<path d="M1176 591 c-3 -5 2 -7 13 -4 15 4 21 -1 24 -21 4 -26 4 -26 3 1 -1
28 -28 44 -40 24z"/>
<path d="M10176 591 c-4 -5 3 -7 14 -4 23 6 26 13 6 13 -8 0 -17 -4 -20 -9z"/>
<path d="M10230 591 c0 -6 6 -8 14 -5 10 4 16 -3 19 -20 4 -26 4 -26 3 1 -1
18 -7 29 -18 31 -10 2 -18 -1 -18 -7z"/>
<path d="M10347 593 c-11 -10 -8 -41 4 -49 6 -3 16 -1 22 5 9 9 8 11 -5 6 -14
-6 -18 -2 -18 15 0 16 4 20 16 16 8 -3 12 -2 9 4 -7 12 -19 13 -28 3z"/>
<path d="M826 572 c-3 -3 -6 -12 -6 -21 0 -11 3 -12 8 -5 4 7 16 14 27 16 19
4 19 4 -2 10 -12 3 -24 3 -27 0z"/>
<path d="M1025 570 c-16 -7 -17 -9 -3 -9 9 -1 19 -7 21 -13 3 -7 6 -3 6 10 1
12 0 22 -1 21 -2 0 -12 -4 -23 -9z"/>
<path d="M1064 560 c1 -8 10 -16 21 -17 15 -1 15 0 3 3 -9 3 -19 11 -21 17 -2
7 -3 5 -3 -3z"/>
<path d="M10188 573 c-19 -5 -25 -33 -7 -33 5 0 7 5 4 10 -3 6 -2 10 4 10 5 0
12 -6 14 -12 3 -7 6 -3 6 10 1 12 0 21 -1 21 -2 -1 -11 -3 -20 -6z"/>
<path d="M718 543 c6 -2 18 -2 25 0 6 3 1 5 -13 5 -14 0 -19 -2 -12 -5z"/>
<path d="M1128 543 c7 -3 16 -2 19 1 4 3 -2 6 -13 5 -11 0 -14 -3 -6 -6z"/>
<path d="M1481 494 c0 -11 3 -14 6 -6 3 7 2 16 -1 19 -3 4 -6 -2 -5 -13z"/>
<path d="M9661 494 c0 -11 3 -14 6 -6 3 7 2 16 -1 19 -3 4 -6 -2 -5 -13z"/>
<path d="M450 475 c0 -18 38 -74 80 -113 36 -35 165 -112 186 -112 5 0 -24 18
-65 40 -82 43 -152 105 -181 160 -11 19 -19 31 -20 25z"/>
<path d="M10681 452 c-19 -46 -101 -119 -182 -162 -41 -22 -70 -40 -65 -40 23
0 153 79 192 118 43 43 80 99 71 108 -2 3 -10 -8 -16 -24z"/>
<path d="M1444 423 c-9 -16 -36 -45 -58 -67 -36 -34 -37 -36 -8 -17 28 20 65
62 86 99 14 24 -2 12 -20 -15z"/>
<path d="M4842 420 c0 -19 2 -27 5 -17 2 9 2 25 0 35 -3 9 -5 1 -5 -18z"/>
<path d="M9686 440 c16 -33 56 -80 86 -101 30 -19 29 -18 -7 17 -23 22 -51 53
-64 69 -12 17 -19 23 -15 15z"/>
<path d="M4996 432 c-2 -4 4 -8 15 -8 10 0 19 4 19 8 0 4 -6 8 -14 8 -8 0 -17
-4 -20 -8z"/>
<path d="M5088 433 c6 -2 10 -8 8 -12 -3 -4 -1 -13 5 -21 6 -11 9 -8 9 13 0
19 -5 27 -17 26 -11 0 -13 -3 -5 -6z"/>
<path d="M5190 430 c0 -5 7 -7 15 -4 8 4 15 8 15 10 0 2 -7 4 -15 4 -8 0 -15
-4 -15 -10z"/>
<path d="M5247 434 c-13 -13 -7 -24 14 -24 11 0 19 5 17 12 -5 14 -22 21 -31
12z"/>
<path d="M5308 433 c7 -3 16 -2 19 1 4 3 -2 6 -13 5 -11 0 -14 -3 -6 -6z"/>
<path d="M5355 430 c-3 -6 1 -7 9 -4 18 7 21 14 7 14 -6 0 -13 -4 -16 -10z"/>
<path d="M5403 424 c-3 -8 -1 -20 5 -26 8 -8 9 -4 5 12 -5 19 -3 22 10 17 10
-4 17 -2 17 3 0 16 -30 11 -37 -6z"/>
<path d="M5480 433 c5 -2 10 -11 10 -18 0 -7 -5 -16 -10 -18 -6 -3 -5 -4 2 -3
7 2 13 11 13 21 0 10 -6 19 -13 21 -7 1 -8 0 -2 -3z"/>
<path d="M5561 413 c1 -22 2 -23 6 -8 3 11 10 23 17 27 7 5 5 8 -6 8 -13 0
-18 -7 -17 -27z"/>
<path d="M5624 425 c-3 -8 -4 -20 -1 -27 3 -7 6 -3 6 10 1 12 5 22 10 22 5 0
12 -10 14 -22 4 -20 4 -19 6 5 1 29 -25 39 -35 12z"/>
<path d="M5707 434 c-13 -13 -7 -24 14 -24 11 0 19 5 17 12 -5 14 -22 21 -31
12z"/>
<path d="M5830 415 c0 -14 2 -25 4 -25 2 0 6 11 8 25 3 14 1 25 -3 25 -5 0 -9
-11 -9 -25z"/>
<path d="M5864 425 c-8 -19 3 -35 24 -34 14 0 13 2 -3 9 -17 7 -17 9 -2 9 21
1 23 31 2 31 -9 0 -18 -7 -21 -15z"/>
<path d="M5958 433 c7 -3 16 -2 19 1 4 3 -2 6 -13 5 -11 0 -14 -3 -6 -6z"/>
<path d="M6000 431 c0 -6 6 -8 14 -5 9 4 16 -3 19 -18 5 -22 5 -22 4 2 -2 24
-37 44 -37 21z"/>
<path d="M6105 430 c-3 -6 1 -7 9 -4 18 7 21 14 7 14 -6 0 -13 -4 -16 -10z"/>
<path d="M6170 432 c0 -4 9 -8 20 -8 11 0 20 4 20 8 0 4 -9 8 -20 8 -11 0 -20
-4 -20 -8z"/>
<path d="M6238 433 c10 -4 10 -8 1 -19 -7 -8 -9 -17 -5 -21 3 -3 6 0 6 8 0 11
2 11 10 -1 8 -12 10 -9 10 13 0 19 -5 27 -17 26 -12 0 -13 -2 -5 -6z"/>
<path d="M6284 425 c-8 -19 4 -35 24 -34 15 1 15 2 0 6 -10 2 -18 11 -18 20 0
9 6 13 15 9 8 -3 15 -1 15 4 0 16 -30 12 -36 -5z"/>
<path d="M6348 433 c7 -3 16 -2 19 1 4 3 -2 6 -13 5 -11 0 -14 -3 -6 -6z"/>
<path d="M4778 423 c6 -2 18 -2 25 0 6 3 1 5 -13 5 -14 0 -19 -2 -12 -5z"/>
<path d="M5769 412 c9 -7 10 -11 2 -15 -7 -4 -8 -5 0 -4 15 3 13 21 -3 25 -10
3 -10 2 1 -6z"/>
<path d="M4778 403 c7 -3 16 -2 19 1 4 3 -2 6 -13 5 -11 0 -14 -3 -6 -6z"/>
<path d="M5008 403 c-10 -2 -18 -8 -18 -13 0 -4 9 -6 20 -3 11 3 20 9 20 14 0
5 -1 8 -2 8 -2 -1 -11 -3 -20 -6z"/>
<path d="M5190 388 c0 -12 3 -17 8 -12 4 5 11 12 15 15 5 3 2 9 -7 12 -12 5
-16 0 -16 -15z"/>
<path d="M5357 399 c7 -7 15 -10 18 -7 3 3 -2 9 -12 12 -14 6 -15 5 -6 -5z"/>
<path d="M6107 399 c7 -7 15 -10 18 -7 3 3 -2 9 -12 12 -14 6 -15 5 -6 -5z"/>
<path d="M6170 387 c0 -13 3 -17 8 -11 4 6 14 13 22 16 10 3 8 6 -8 10 -18 5
-22 2 -22 -15z"/>
<path d="M6348 393 c7 -3 16 -2 19 1 4 3 -2 6 -13 5 -11 0 -14 -3 -6 -6z"/>
<path d="M5362 310 c0 -19 2 -27 5 -17 2 9 2 25 0 35 -3 9 -5 1 -5 -18z"/>
<path d="M5632 310 c0 -19 2 -27 5 -17 2 9 2 25 0 35 -3 9 -5 1 -5 -18z"/>
<path d="M5725 331 c-3 -5 0 -13 6 -17 7 -4 9 -3 5 4 -3 5 0 13 6 15 9 4 10 6
1 6 -6 1 -14 -3 -18 -8z"/>
<path d="M1314 304 c-18 -14 -18 -15 4 -4 12 6 22 13 22 15 0 8 -5 6 -26 -11z"/>
<path d="M5548 313 c7 -3 16 -2 19 1 4 3 -2 6 -13 5 -11 0 -14 -3 -6 -6z"/>
<path d="M9810 316 c0 -3 9 -10 20 -16 11 -6 20 -8 20 -6 0 3 -9 10 -20 16
-11 6 -20 8 -20 6z"/>
<path d="M5458 293 c6 -2 18 -2 25 0 6 3 1 5 -13 5 -14 0 -19 -2 -12 -5z"/>
<path d="M5538 293 c6 -2 18 -2 25 0 6 3 1 5 -13 5 -14 0 -19 -2 -12 -5z"/>
<path d="M1270 280 c-9 -6 -10 -10 -3 -10 6 0 15 5 18 10 8 12 4 12 -15 0z"/>
<path d="M5405 280 c3 -5 8 -10 11 -10 2 0 4 5 4 10 0 6 -5 10 -11 10 -5 0 -7
-4 -4 -10z"/>
<path d="M9867 279 c7 -7 15 -10 18 -7 3 3 -2 9 -12 12 -14 6 -15 5 -6 -5z"/>
<path d="M1220 260 c-8 -5 -10 -10 -5 -10 6 0 17 5 25 10 8 5 11 10 5 10 -5 0
-17 -5 -25 -10z"/>
<path d="M9910 260 c8 -5 20 -10 25 -10 6 0 3 5 -5 10 -8 5 -19 10 -25 10 -5
0 -3 -5 5 -10z"/>
<path d="M1138 233 c7 -3 16 -2 19 1 4 3 -2 6 -13 5 -11 0 -14 -3 -6 -6z"/>
<path d="M9998 233 c7 -3 16 -2 19 1 4 3 -2 6 -13 5 -11 0 -14 -3 -6 -6z"/>
<path d="M828 223 c6 -2 18 -2 25 0 6 3 1 5 -13 5 -14 0 -19 -2 -12 -5z"/>
<path d="M1078 223 c6 -2 18 -2 25 0 6 3 1 5 -13 5 -14 0 -19 -2 -12 -5z"/>
<path d="M5320 226 c0 -2 7 -7 16 -10 8 -3 12 -2 9 4 -6 10 -25 14 -25 6z"/>
<path d="M10048 223 c6 -2 18 -2 25 0 6 3 1 5 -13 5 -14 0 -19 -2 -12 -5z"/>
<path d="M10298 223 c6 -2 18 -2 25 0 6 3 1 5 -13 5 -14 0 -19 -2 -12 -5z"/>
<path d="M923 213 c26 -2 67 -2 90 0 23 2 2 3 -48 3 -49 0 -68 -1 -42 -3z"/>
<path d="M10143 213 c26 -2 67 -2 90 0 23 2 2 3 -48 3 -49 0 -68 -1 -42 -3z"/>
<path d="M5386 203 c6 -4 14 -15 17 -23 5 -11 6 -9 4 4 -1 11 -9 21 -17 23
-10 3 -11 2 -4 -4z"/>
<path d="M5422 185 c0 -16 2 -22 5 -12 2 9 2 23 0 30 -3 6 -5 -1 -5 -18z"/>
<path d="M5478 183 c5 -21 7 -23 10 -9 2 10 0 22 -6 28 -6 6 -7 0 -4 -19z"/>
<path d="M5608 203 c7 -3 16 -2 19 1 4 3 -2 6 -13 5 -11 0 -14 -3 -6 -6z"/>
<path d="M5651 183 c2 -25 2 -26 6 -5 3 16 10 22 19 18 9 -3 12 -1 9 4 -13 21
-35 10 -34 -17z"/>
<path d="M5502 180 c0 -14 2 -19 5 -12 2 6 2 18 0 25 -3 6 -5 1 -5 -13z"/>
<path d="M5572 180 c0 -14 2 -19 5 -12 2 6 2 18 0 25 -3 6 -5 1 -5 -13z"/>
<path d="M5738 193 c6 -2 18 -2 25 0 6 3 1 5 -13 5 -14 0 -19 -2 -12 -5z"/>
<path d="M5535 180 c3 -5 11 -10 16 -10 6 0 7 5 4 10 -3 6 -11 10 -16 10 -6 0
-7 -4 -4 -10z"/>
<path d="M5738 173 c6 -2 18 -2 25 0 6 3 1 5 -13 5 -14 0 -19 -2 -12 -5z"/>
</g>
</svg>
